{
    "global": {
        "check_for_updates_on_startup": true,
        "show_in_menu_bar": false,
        "show_profile_name_in_menu_bar": false
    },
    "profiles": [
        {
            "complex_modifications": {
                "parameters": {
                    "basic.simultaneous_threshold_milliseconds": 50,
                    "basic.to_delayed_action_delay_milliseconds": 500,
                    "basic.to_if_alone_timeout_milliseconds": 5000,
                    "basic.to_if_held_down_threshold_milliseconds": 500,
                    "mouse_motion_to_scroll.speed": 100
                },
                "rules": [
                    {
                        "manipulators": [
                            {
                                "description": "Change right_command to command+control+option+shift.",
                                "from": {
                                    "key_code": "right_command",
                                    "modifiers": {
                                        "optional": [
                                            "any"
                                        ]
                                    }
                                },
                                "to": [
                                    {
                                        "key_code": "left_shift",
                                        "modifiers": [
                                            "left_command",
                                            "left_control"
                                        ]
                                    }
                                ],
                                "type": "basic"
                            }
                        ]
                    },
                    {
                        "manipulators": [
                            {
                                "description": "Change end to lock screen",
                                "from": {
                                    "key_code": "end",
                                    "modifiers": {
                                        "optional": [
                                            "any"
                                        ]
                                    }
                                },
                                "to": [
                                    {
                                        "key_code": "q",
                                        "modifiers": [
                                            "left_control",
                                            "left_command"
                                        ]
                                    }
                                ],
                                "type": "basic"
                            }
                        ]
                    },
                    {
                        "description": "Map fn + number keys to their corresponding function keys (rev 1)",
                        "manipulators": [
                            {
                                "from": {
                                    "key_code": "1",
                                    "modifiers": {
                                        "mandatory": [
                                            "fn"
                                        ],
                                        "optional": [
                                            "any"
                                        ]
                                    }
                                },
                                "to": [
                                    {
                                        "key_code": "f1",
                                        "modifiers": [
                                            "fn"
                                        ]
                                    }
                                ],
                                "type": "basic"
                            },
                            {
                                "from": {
                                    "key_code": "2",
                                    "modifiers": {
                                        "mandatory": [
                                            "fn"
                                        ],
                                        "optional": [
                                            "any"
                                        ]
                                    }
                                },
                                "to": [
                                    {
                                        "key_code": "f2",
                                        "modifiers": [
                                            "fn"
                                        ]
                                    }
                                ],
                                "type": "basic"
                            },
                            {
                                "from": {
                                    "key_code": "3",
                                    "modifiers": {
                                        "mandatory": [
                                            "fn"
                                        ],
                                        "optional": [
                                            "any"
                                        ]
                                    }
                                },
                                "to": [
                                    {
                                        "key_code": "f3",
                                        "modifiers": [
                                            "fn"
                                        ]
                                    }
                                ],
                                "type": "basic"
                            },
                            {
                                "from": {
                                    "key_code": "4",
                                    "modifiers": {
                                        "mandatory": [
                                            "fn"
                                        ],
                                        "optional": [
                                            "any"
                                        ]
                                    }
                                },
                                "to": [
                                    {
                                        "key_code": "f4",
                                        "modifiers": [
                                            "fn"
                                        ]
                                    }
                                ],
                                "type": "basic"
                            },
                            {
                                "from": {
                                    "key_code": "5",
                                    "modifiers": {
                                        "mandatory": [
                                            "fn"
                                        ],
                                        "optional": [
                                            "any"
                                        ]
                                    }
                                },
                                "to": [
                                    {
                                        "key_code": "f5",
                                        "modifiers": [
                                            "fn"
                                        ]
                                    }
                                ],
                                "type": "basic"
                            },
                            {
                                "from": {
                                    "key_code": "6",
                                    "modifiers": {
                                        "mandatory": [
                                            "fn"
                                        ],
                                        "optional": [
                                            "any"
                                        ]
                                    }
                                },
                                "to": [
                                    {
                                        "key_code": "f6",
                                        "modifiers": [
                                            "fn"
                                        ]
                                    }
                                ],
                                "type": "basic"
                            },
                            {
                                "from": {
                                    "key_code": "7",
                                    "modifiers": {
                                        "mandatory": [
                                            "fn"
                                        ],
                                        "optional": [
                                            "any"
                                        ]
                                    }
                                },
                                "to": [
                                    {
                                        "key_code": "f7",
                                        "modifiers": [
                                            "fn"
                                        ]
                                    }
                                ],
                                "type": "basic"
                            },
                            {
                                "from": {
                                    "key_code": "8",
                                    "modifiers": {
                                        "mandatory": [
                                            "fn"
                                        ],
                                        "optional": [
                                            "any"
                                        ]
                                    }
                                },
                                "to": [
                                    {
                                        "key_code": "f8",
                                        "modifiers": [
                                            "fn"
                                        ]
                                    }
                                ],
                                "type": "basic"
                            },
                            {
                                "from": {
                                    "key_code": "9",
                                    "modifiers": {
                                        "mandatory": [
                                            "fn"
                                        ],
                                        "optional": [
                                            "any"
                                        ]
                                    }
                                },
                                "to": [
                                    {
                                        "key_code": "f9",
                                        "modifiers": [
                                            "fn"
                                        ]
                                    }
                                ],
                                "type": "basic"
                            },
                            {
                                "from": {
                                    "key_code": "0",
                                    "modifiers": {
                                        "mandatory": [
                                            "fn"
                                        ],
                                        "optional": [
                                            "any"
                                        ]
                                    }
                                },
                                "to": [
                                    {
                                        "key_code": "f10",
                                        "modifiers": [
                                            "fn"
                                        ]
                                    }
                                ],
                                "type": "basic"
                            },
                            {
                                "from": {
                                    "key_code": "hyphen",
                                    "modifiers": {
                                        "mandatory": [
                                            "fn"
                                        ],
                                        "optional": [
                                            "any"
                                        ]
                                    }
                                },
                                "to": [
                                    {
                                        "key_code": "f11",
                                        "modifiers": [
                                            "fn"
                                        ]
                                    }
                                ],
                                "type": "basic"
                            },
                            {
                                "from": {
                                    "key_code": "equal_sign",
                                    "modifiers": {
                                        "mandatory": [
                                            "fn"
                                        ],
                                        "optional": [
                                            "any"
                                        ]
                                    }
                                },
                                "to": [
                                    {
                                        "key_code": "f12",
                                        "modifiers": [
                                            "fn"
                                        ]
                                    }
                                ],
                                "type": "basic"
                            }
                        ]
                    },
                    {
                        "description": "Change Fn + h/j/k/l to Arrows",
                        "manipulators": [
                            {
                                "from": {
                                    "key_code": "h",
                                    "modifiers": {
                                        "mandatory": [
                                            "fn"
                                        ],
                                        "optional": [
                                            "caps_lock",
                                            "left_command",
                                            "left_option",
                                            "left_control",
                                            "left_shift"
                                        ]
                                    }
                                },
                                "to": [
                                    {
                                        "key_code": "left_arrow"
                                    }
                                ],
                                "type": "basic"
                            },
                            {
                                "from": {
                                    "key_code": "j",
                                    "modifiers": {
                                        "mandatory": [
                                            "fn"
                                        ],
                                        "optional": [
                                            "caps_lock",
                                            "left_command",
                                            "left_option",
                                            "left_control",
                                            "left_shift"
                                        ]
                                    }
                                },
                                "to": [
                                    {
                                        "key_code": "down_arrow"
                                    }
                                ],
                                "type": "basic"
                            },
                            {
                                "from": {
                                    "key_code": "k",
                                    "modifiers": {
                                        "mandatory": [
                                            "fn"
                                        ],
                                        "optional": [
                                            "caps_lock",
                                            "left_command",
                                            "left_option",
                                            "left_control",
                                            "left_shift"
                                        ]
                                    }
                                },
                                "to": [
                                    {
                                        "key_code": "up_arrow"
                                    }
                                ],
                                "type": "basic"
                            },
                            {
                                "from": {
                                    "key_code": "l",
                                    "modifiers": {
                                        "mandatory": [
                                            "fn"
                                        ],
                                        "optional": [
                                            "caps_lock",
                                            "left_command",
                                            "left_option",
                                            "left_control",
                                            "left_shift"
                                        ]
                                    }
                                },
                                "to": [
                                    {
                                        "key_code": "right_arrow"
                                    }
                                ],
                                "type": "basic"
                            }
                        ]
                    },
                    {
                        "manipulators": [
                            {
                                "description": "Change f20 to control space",
                                "from": {
                                    "key_code": "f20"
                                },
                                "to": [
                                    {
                                        "key_code": "spacebar",
                                        "modifiers": [
                                            "left_control"
                                        ]
                                    }
                                ],
                                "type": "basic"
                            }
                        ]
                    },
                    {
                        "manipulators": [
                            {
                                "description": "Change caps-lock to control space",
                                "from": {
                                    "key_code": "caps_lock",
                                    "modifiers": {
                                        "optional": [
                                            "left_command",
                                            "left_option",
                                            "left_control",
                                            "left_shift"
                                        ]
                                    }
                                },
                                "to": [
                                    {
                                        "key_code": "spacebar",
                                        "modifiers": [
                                            "left_control"
                                        ]
                                    }
                                ],
                                "type": "basic"
                            }
                        ]
                    },
                    {
                        "manipulators": [
                            {
                                "description": "Change fn + escape to grave accent",
                                "from": {
                                    "key_code": "escape",
                                    "modifiers": {
                                        "mandatory": [
                                            "fn"
                                        ],
                                        "optional": [
                                            "caps_lock",
                                            "left_command",
                                            "left_option",
                                            "left_control",
                                            "left_shift"
                                        ]
                                    }
                                },
                                "to": [
                                    {
                                        "key_code": "grave_accent_and_tilde"
                                    }
                                ],
                                "type": "basic"
                            }
                        ]
                    },
                    {
                        "description": "fn + spacebar to capslock",
                        "manipulators": [
                            {
                                "from": {
                                    "key_code": "spacebar",
                                    "modifiers": {
                                        "mandatory": [
                                            "fn"
                                        ],
                                        "optional": [
                                            "any"
                                        ]
                                    }
                                },
                                "to": [
                                    {
                                        "key_code": "spacebar",
                                        "modifiers": [
                                            "left_control"
                                        ]
                                    }
                                ],
                                "type": "basic"
                            }
                        ]
                    }
                ]
            },
            "devices": [
                {
                    "disable_built_in_keyboard_if_exists": false,
                    "fn_function_keys": [],
                    "identifiers": {
                        "is_keyboard": true,
                        "is_pointing_device": false,
                        "product_id": 635,
                        "vendor_id": 1452
                    },
                    "ignore": false,
                    "manipulate_caps_lock_led": true,
                    "simple_modifications": [
                        {
                            "from": {
                                "key_code": "caps_lock"
                            },
                            "to": [
                                {
                                    "key_code": "fn"
                                }
                            ]
                        },
                        {
                            "from": {
                                "key_code": "grave_accent_and_tilde"
                            },
                            "to": [
                                {
                                    "key_code": "escape"
                                }
                            ]
                        },
                        {
                            "from": {
                                "key_code": "right_option"
                            },
                            "to": [
                                {
                                    "key_code": "right_control"
                                }
                            ]
                        }
                    ]
                },
                {
                    "disable_built_in_keyboard_if_exists": false,
                    "fn_function_keys": [],
                    "identifiers": {
                        "is_keyboard": true,
                        "is_pointing_device": false,
                        "product_id": 615,
                        "vendor_id": 76
                    },
                    "ignore": false,
                    "manipulate_caps_lock_led": true,
                    "simple_modifications": [
                        {
                            "from": {
                                "key_code": "caps_lock"
                            },
                            "to": [
                                {
                                    "key_code": "fn"
                                }
                            ]
                        }
                    ]
                },
                {
                    "disable_built_in_keyboard_if_exists": false,
                    "fn_function_keys": [],
                    "identifiers": {
                        "is_keyboard": true,
                        "is_pointing_device": true,
                        "product_id": 45091,
                        "vendor_id": 1133
                    },
                    "ignore": true,
                    "manipulate_caps_lock_led": true,
                    "simple_modifications": []
                },
                {
                    "disable_built_in_keyboard_if_exists": false,
                    "fn_function_keys": [],
                    "identifiers": {
                        "is_keyboard": true,
                        "is_pointing_device": false,
                        "product_id": 34304,
                        "vendor_id": 1452
                    },
                    "ignore": false,
                    "manipulate_caps_lock_led": true,
                    "simple_modifications": []
                },
                {
                    "disable_built_in_keyboard_if_exists": false,
                    "fn_function_keys": [],
                    "identifiers": {
                        "is_keyboard": true,
                        "is_pointing_device": false,
                        "product_id": 6931,
                        "vendor_id": 6940
                    },
                    "ignore": false,
                    "manipulate_caps_lock_led": false,
                    "simple_modifications": [
                        {
                            "from": {
                                "key_code": "left_command"
                            },
                            "to": [
                                {
                                    "key_code": "left_option"
                                }
                            ]
                        },
                        {
                            "from": {
                                "key_code": "left_option"
                            },
                            "to": [
                                {
                                    "key_code": "left_command"
                                }
                            ]
                        },
                        {
                            "from": {
                                "key_code": "right_command"
                            },
                            "to": [
                                {
                                    "key_code": "right_option"
                                }
                            ]
                        },
                        {
                            "from": {
                                "key_code": "right_option"
                            },
                            "to": [
                                {
                                    "key_code": "right_command"
                                }
                            ]
                        }
                    ]
                },
                {
                    "disable_built_in_keyboard_if_exists": true,
                    "fn_function_keys": [],
                    "identifiers": {
                        "is_keyboard": true,
                        "is_pointing_device": false,
                        "product_id": 4641,
                        "vendor_id": 17498
                    },
                    "ignore": false,
                    "manipulate_caps_lock_led": false,
                    "simple_modifications": [
                        {
                            "from": {
                                "key_code": "f20"
                            },
                            "to": [
                                {
                                    "key_code": "f20"
                                }
                            ]
                        }
                    ]
                }
            ],
            "fn_function_keys": [
                {
                    "from": {
                        "key_code": "f1"
                    },
                    "to": [
                        {
                            "consumer_key_code": "display_brightness_decrement"
                        }
                    ]
                },
                {
                    "from": {
                        "key_code": "f2"
                    },
                    "to": [
                        {
                            "consumer_key_code": "display_brightness_increment"
                        }
                    ]
                },
                {
                    "from": {
                        "key_code": "f3"
                    },
                    "to": [
                        {
                            "key_code": "mission_control"
                        }
                    ]
                },
                {
                    "from": {
                        "key_code": "f4"
                    },
                    "to": [
                        {
                            "key_code": "launchpad"
                        }
                    ]
                },
                {
                    "from": {
                        "key_code": "f5"
                    },
                    "to": [
                        {
                            "key_code": "illumination_decrement"
                        }
                    ]
                },
                {
                    "from": {
                        "key_code": "f6"
                    },
                    "to": [
                        {
                            "key_code": "illumination_increment"
                        }
                    ]
                },
                {
                    "from": {
                        "key_code": "f7"
                    },
                    "to": [
                        {
                            "consumer_key_code": "rewind"
                        }
                    ]
                },
                {
                    "from": {
                        "key_code": "f8"
                    },
                    "to": [
                        {
                            "consumer_key_code": "play_or_pause"
                        }
                    ]
                },
                {
                    "from": {
                        "key_code": "f9"
                    },
                    "to": [
                        {
                            "consumer_key_code": "fastforward"
                        }
                    ]
                },
                {
                    "from": {
                        "key_code": "f10"
                    },
                    "to": [
                        {
                            "consumer_key_code": "mute"
                        }
                    ]
                },
                {
                    "from": {
                        "key_code": "f11"
                    },
                    "to": [
                        {
                            "consumer_key_code": "volume_decrement"
                        }
                    ]
                },
                {
                    "from": {
                        "key_code": "f12"
                    },
                    "to": [
                        {
                            "consumer_key_code": "volume_increment"
                        }
                    ]
                }
            ],
            "name": "Default profile",
            "parameters": {
                "delay_milliseconds_before_open_device": 1000
            },
            "selected": true,
            "simple_modifications": [],
            "virtual_hid_keyboard": {
                "country_code": 0,
                "indicate_sticky_modifier_keys_state": true,
                "mouse_key_xy_scale": 100
            }
        }
    ]
}